[
  {
    "name": "Polylang",
    "slug": "polylang/polylang.php",
    "host": "wordpress",
    "uri": "https://wordpress.org/plugins/polylang/",
    "optional": true
  },
  {
    "name": "Advanced Custom Fields Pro",
    "slug": "advanced-custom-fields-pro/acf.php",
    "host": "wordpress",
    "uri": "https://advancedcustomfields.com",
    "optional": true
  }
]
